digraph ram { 
  node [shape=plaintext]
  bgcolor="#999b9c"
  
  subgraph cluster_scheduled {
    label="SCHEDULED"
    bgcolor="#cbcccd"
    launch_cRun [shape=box3d fillcolor="#FBBC04" style=filled]
    executecaiexport_cRun [shape=box3d fillcolor="#FBBC04" style=filled]
    executegfsdeleteolddocs_cRun [shape=box3d fillcolor="#FBBC04" style=filled]
    actions_gcs_bucket  [shape=folder fillcolor="#EE675C" style=filled]

    actionTrigger_topic [shape=ellipse fillcolor="#5BB974" style=filled]
    action_topic [shape=ellipse fillcolor="#5BB974" style=filled]

    launch_trigger [shape=box fillcolor="#AECBFA" style=filled]
    executecaiexport_trigger [shape=box fillcolor="#174EA6" style=filled fontcolor="white"]
    executegfsdeleteolddocs_trigger [shape=box fillcolor="#174EA6" style=filled fontcolor="white"]


    cloudSchedulerxx -> actionTrigger_topic
    cloudScheduler01 -> actionTrigger_topic
    actionTrigger_topic -> launch_trigger
    launch_trigger -> launch_cRun
    actions_gcs_bucket -> launch_cRun
    launch_cRun -> action_topic
    
    action_topic -> executecaiexport_trigger
    executecaiexport_trigger -> executecaiexport_cRun

    action_topic -> executegfsdeleteolddocs_trigger
    executegfsdeleteolddocs_trigger -> executegfsdeleteolddocs_cRun
  }
  executecaiexport_cRun -> cai_export_api;
  executegfsdeleteolddocs_cRun -> exports_firestore_collection

  subgraph cluster_assets {
    bgcolor="#cbcccd"
    label="ASSETS"
    subgraph cluster_cai {
      label="GCP Cloud Asset Inventory"
      subgraph cluster_export {
        label="export"
        cai_export_api
      }
      subgraph cluster_realtime {
        label="real-time"
        caiFeed_org_A caiFeed_org_xx caiFeed_folder_1 caiFeed_folder_n
      }
    }
    other_assets [fontcolor="white" fillcolor="#A50E0E" style=filled]
  }
  other_assets -> caiFeed_topic;
  caiFeed_org_A -> caiFeed_topic;
  caiFeed_org_xx -> caiFeed_topic;
  caiFeed_folder_1 -> caiFeed_topic;
  caiFeed_folder_n -> caiFeed_topic;
  cai_export_api -> exports_gcs_bucket;

  subgraph cluster_splitexport {
    bgcolor="#cbcccd"
    splitexport_cRun [shape=box3d fillcolor="#FBBC04" style=filled]
    export_topic [shape=ellipse fillcolor="#5BB974" style=filled]
    splitexport_trigger [shape=box fillcolor="#174EA6" style=filled fontcolor="white"]
    exports_firestore_collection [shape=folder]
    exports_gcs_bucket [shape=folder]

    exports_gcs_bucket -> exports_gcs_notification;
    exports_gcs_notification -> export_topic;
    export_topic -> splitexport_trigger;
    splitexport_trigger -> splitexport_cRun;
    splitexport_cRun -> exports_firestore_collection;
  }

  splitexport_cRun -> caiFeed_topic;
  splitexport_cRun -> exports_gcs_bucket;


  subgraph cluster_publish2fs {
    bgcolor="#cbcccd"
    publish2fs_cRun [shape=box3d fillcolor="#FBBC04" style=filled]
    publish2fs_trigger [shape=box fillcolor="#174EA6" style=filled fontcolor="white"]
    assets_firestore_collection [shape=folder]

    publish2fs_trigger -> publish2fs_cRun;
    publish2fs_cRun -> assets_firestore_collection;
  }

  subgraph cluster_upload2gcs {
    bgcolor="#cbcccd"
    upload2gcs_cRun [shape=box3d fillcolor="#FBBC04" style=filled]
    upload2gcs_trigger [shape=box fillcolor="#174EA6" style=filled fontcolor="white"]
    assets_gcs_bucket [shape=folder fillcolor="#EE675C" style=filled]

    upload2gcs_trigger -> upload2gcs_cRun;
    upload2gcs_cRun -> assets_gcs_bucket;
  }

  subgraph cluster_core {
    label="                          core microvervices"
    caiFeed_topic [shape=ellipse fillcolor="#5BB974" style=filled]
    caiFeed_topic -> convertfeed_trigger; 



    subgraph cluster_convertfeed {
      bgcolor="#cbcccd"
      label=""
      convertfeed_cRun [shape=box3d fillcolor="#FBBC04" style=filled]
      convertfeed_trigger [shape=box fillcolor="#AECBFA" style=filled]
      assetFeed_topic [shape=ellipse fillcolor="#5BB974" style=filled]

      convertfeed_trigger -> convertfeed_cRun;
      convertfeed_cRun -> assetFeed_topic;
    }

    convertfeed_cRun -> assets_firestore_collection;
    assetFeed_topic -> publish2fs_trigger;
    assetFeed_topic -> upload2gcs_trigger;


    assetFeed_topic -> stream2bq_asset_trigger;
    assetFeed_topic -> fetchrules_trigger;

    subgraph cluster_fetchrules {
      label=""
      bgcolor="#cbcccd"
      rules_gcs_bucket  [shape=folder fillcolor="#EE675C" style=filled]
      fetchrules_trigger [shape=box fillcolor="#174EA6" style=filled fontcolor="white"]
      fetchrules_cRun [shape=box3d fillcolor="#FBBC04" style=filled];
      assetRule_topic [shape=ellipse fillcolor="#5BB974" style=filled]

      fetchrules_trigger -> fetchrules_cRun;
      rules_gcs_bucket -> fetchrules_cRun;
      fetchrules_cRun -> assetRule_topic;
    }

    assetRule_topic -> monitor_trigger;
    
    subgraph cluster_monitor {
      label=""
      bgcolor="#cbcccd"
      monitor_trigger [shape=box fillcolor="#174EA6" style=filled fontcolor="white"]
      monitor_cRun [shape=box3d fillcolor="#FBBC04" style=filled];
      complianceStatus_topic [shape=ellipse fillcolor="#5BB974" style=filled]
      violation_topic [shape=ellipse fillcolor="#5BB974" style=filled]

      monitor_trigger -> monitor_cRun;
      monitor_cRun -> complianceStatus_topic;
      monitor_cRun -> violation_topic;
    }

    complianceStatus_topic -> stream2bq_complianceStatus_trigger;
    stream2bq_complianceStatus_trigger -> stream2bq_cRun;
    violation_topic -> stream2bq_violation_trigger;
    
    subgraph cluster_stream2bq {
      label=""
      bgcolor="#cbcccd"
      stream2bq_asset_trigger [shape=box fillcolor="#174EA6" style=filled fontcolor="white"]
      stream2bq_complianceStatus_trigger [shape=box fillcolor="#174EA6" style=filled fontcolor="white"]
      stream2bq_violation_trigger  [shape=box fillcolor="#174EA6" style=filled fontcolor="white"]
      stream2bq_cRun [shape=box3d fillcolor="#FBBC04" style=filled]
      assets_bq_table [shape="folder"]
      complianceStatus_bq_table [shape="folder"]
      violations_bq_table [shape="folder"]
      lastAssets_bq_view [shape="folder"]
      lastComplianceStatus_bq_view [shape="folder"]
      activeViolations_bq_view [shape="folder"]
      
      stream2bq_asset_trigger -> stream2bq_cRun
      stream2bq_violation_trigger -> stream2bq_cRun
      stream2bq_cRun -> assets_bq_table
      stream2bq_cRun -> complianceStatus_bq_table
      stream2bq_cRun -> violations_bq_table

      assets_bq_table -> lastAssets_bq_view
      complianceStatus_bq_table -> lastComplianceStatus_bq_view
      lastAssets_bq_view -> lastComplianceStatus_bq_view
      violations_bq_table -> activeViolations_bq_view
      lastComplianceStatus_bq_view -> activeViolations_bq_view
    }
  }
  violation_topic -> autofix_bqdsdelete_trigger;
  subgraph cluster_autofix {
    label=""
      bgcolor="#cbcccd"
      autofix_bqdsdelete_trigger [shape=box fillcolor="#174EA6" style=filled fontcolor="white"]
      autofix_bqdsdelete_cRun [shape=box3d fillcolor="#FBBC04" style=filled]
      autofix_bqdsdelete_trigger -> autofix_bqdsdelete_cRun
  }
  subgraph cluster_console {
    label=""
      bgcolor="#cbcccd"
      console_cRun [shape=box3d fillcolor="#FBBC04" style=filled]
      consolebff_cRun [shape=box3d fillcolor="#FBBC04" style=filled]
      console_cRun -> consolebff_cRun
  }
  consolebff_cRun -> complianceStatus_bq_table
  consolebff_cRun -> assets_bq_table
  dns_A_record
  subgraph cluster_load_balancer {
    label="global external HTTPS classic load balancer"
      bgcolor="#cbcccd"
      global_forwarding_rule
      global_address
      target_https_proxy
      ssl_certificate
      url_map
      static_public_backend_bucket
      static_public_storage_bucket
      admin_identity_aware_proxy [fontcolor="white" fillcolor="#A50E0E" style=filled]
      results_identity_aware_proxy [fontcolor="white" fillcolor="#A50E0E" style=filled]
      cloud_armor [fontcolor="white" fillcolor="#A50E0E" style=filled]
      admin_backend_services
      admin_serverless_neg
      admin_serverless_neg_urlmask
      results_backend_services
      results_serverless_neg
      results_serverless_neg_urlmask
      global_address -> global_forwarding_rule
      global_forwarding_rule -> target_https_proxy
      target_https_proxy -> ssl_certificate
      target_https_proxy -> url_map
      url_map -> cloud_armor
      cloud_armor -> static_public_backend_bucket
      static_public_backend_bucket -> static_public_storage_bucket
      cloud_armor -> admin_backend_services
      admin_backend_services -> admin_identity_aware_proxy
      admin_identity_aware_proxy -> admin_serverless_neg
      admin_serverless_neg -> admin_serverless_neg_urlmask
      cloud_armor -> results_backend_services
      results_backend_services -> results_identity_aware_proxy
      results_identity_aware_proxy -> results_serverless_neg
      results_serverless_neg -> results_serverless_neg_urlmask
  }
  dns_A_record -> global_address
  dns_A_record -> ssl_certificate
  results_serverless_neg_urlmask -> console_cRun
  lastAssets_bq_view -> reports;
  lastComplianceStatus_bq_view -> reports;
  activeViolations_bq_view -> reports;
  autofix_bqdsdelete_cRun -> deleted_dataset; 
  deleted_dataset -> caiFeed_org_A;

  subgraph cluster_legend {
    label="legend"
    bgcolor="#cbcccd"
    cloud_run_service [shape=box3d fillcolor="#FBBC04" style=filled];
    eventarc_trigger [shape=box fillcolor="#AECBFA" style=filled]
    subscription_trigger [shape=box fillcolor="#174EA6" style=filled fontcolor="white"]
    pubsub_topic [shape=ellipse fillcolor="#5BB974" style=filled]
    pubsub_topic -> eventarc_trigger [style="invis"]
    pubsub_topic -> subscription_trigger [style="invis"]
    subscription_trigger -> cloud_run_service [style="invis"]
    eventarc_trigger -> cloud_run_service [style="invis"]
  }
}